21:10:10 **** Incremental Build of configuration Debug for project lwip_test_system ****
make all 
Generating bif file for the system project
Executing command '::scw::generate_bif -xpfm /mnt/Archivos/cese/trabajo_final/generator/sw/generator_wrapper/export/generator_wrapper/generator_wrapper.xpfm -domains freertos10_xilinx_domain -bifpath /mnt/Archivos/cese/trabajo_final/generator/sw/lwip_test_system/Debug/system.bif' on XSCT
sdcard_gen --xpfm /mnt/Archivos/cese/trabajo_final/generator/sw/generator_wrapper/export/generator_wrapper/generator_wrapper.xpfm --sys_config generator_wrapper --bif /mnt/Archivos/cese/trabajo_final/generator/sw/lwip_test_system/Debug/system.bif --bitstream /mnt/Archivos/cese/trabajo_final/generator/sw/lwip_test/_ide/bitstream/generator_wrapper.bit --elf /mnt/Archivos/cese/trabajo_final/generator/sw/lwip_test/Debug/lwip_test.elf,ps7_cortexa9_0
creating BOOT.BIN using /mnt/Archivos/cese/trabajo_final/generator/sw/lwip_test/_ide/bitstream/generator_wrapper.bit
Running /tools/Xilinx/Vitis/2019.2/bin/bootgen  -image /mnt/Archivos/cese/trabajo_final/generator/sw/lwip_test_system/Debug/sd_card_temp/boot.bif -w -o i BOOT.BIN

21:10:17 Build Finished (took 7s.244ms)

