<?xml version="1.0" encoding="UTF-8"?>
<session version="1.0">
<refactoring comment="Delete 8 resources" deleteContents="false" description="Delete 8 resources" element1="/radar_test_platform/src/pb_common.c" element2="/radar_test_platform/src/pb_common.h" element3="/radar_test_platform/src/pb_decode.c" element4="/radar_test_platform/src/pb_decode.h" element5="/radar_test_platform/src/pb_encode.c" element6="/radar_test_platform/src/pb_encode.h" element7="/radar_test_platform/src/pb.h" element8="/radar_test_platform/src/platform_config.h" flags="7" id="org.eclipse.ltk.core.refactoring.delete.resources" resources="8" stamp="1600554579079"/>
</session>