$date
        2020-Sep-16 20:18:27
$end
$version
        Vivado v2019.2 (64-bit)
$end
$timescale
        1ps
$end
$scope module dut $end
$var reg 64 " iq_demod_bd_i/Net [63:0] $end
$var reg 1 b iq_demod_bd_i/axis_demod_packetizer_m_axis_output_tvalid $end
$var reg 1 c iq_demod_bd_i/axis_demod_packetizer_m_axis_output_tlast $end
$var reg 1 d iq_demod_bd_i/Net1 $end
$var reg 1 e _TRIGGER $end
$var reg 1 f _WINDOW $end
$var reg 1 g _GAP $end
$upscope $end
$enddefinitions $end
#0
$dumpvars
b10011001000111100101100011111110100011111101000101001000 "
0b
0c
0d
0e
1f
0g
$end
#17
b1111111001111011111101100110101100000000010111010101111011011000 "
1b
#18
b101101111000101101010000000000000100111001011000010111101 "
0b
#87
b1111111100110010011011010100011011111110101010011110010111000001 "
1b
#88
b1111111101100110011101001000110000000001011100001101010100011000 "
0b
#157
b100000010101000101011111111111110110100000000011101100010 "
1b
#158
b1111111010001011001110000100100011111111011100010011001100100101 "
0b
#227
b101110101011010101100000000000000100011001100100011010101 "
1b
#228
b1111100001011111011111011111110100001001011010000110110 "
0b
#297
b1011011111110000000000001100011110000110100110101 "
1b
#298
b110000010111110101010111000000000011000011101000001010110 "
0b
#367
b1111111010001110100100100010111100000000100101101100001000010000 "
1b
#368
b1111111111000000100110011110000100000001100010100100010100011000 "
0b
#437
b1111111011100100010011111111100111111110111001110111011000011010 "
1b
#438
b1111111001110001011011110110010011111111111010110111011101110000 "
0b
#500
1d
1e
#507
b10001011001111000110010111111110100010100010010000100010 "
1b
#508
b1111111111100001100010111100111111111110011100100001001110010110 "
0b
#577
b110001101011011010001000011111111110111011001010101000110 "
1b
#578
b110000101000110100101101011111111101001110111001110110111 "
0b
#647
b11010000001010110110000000000001010101000100101011001100 "
1b
#648
b10011000000000100110011100000001011100010000110010000001 "
0b
#717
b1111111100110011000011101110011100000001010101100100001001100110 "
1b
#718
b1111111010110001101110000000011000000000110110011110000100010010 "
0b
#787
b1111111001110001010101000000101011111111111100010000010010000011 "
1b
#788
b1111111011100110001101101111111111111110111001010111000000100100 "
0b
#857
b1111111101000110010100010100011011111110100111101101111001011001 "
1b
#858
b11010100001000100100011011111110101011100001000111111110 "
0b
#927
b11001110111101110000101111111110101010101110010011110100 "
1b
#928
b101111011011110000011001100000000011110111001101000010010 "
0b
#997
b110001110111100001110111011111111111110011011010110100111 "
1b
#998
b1111111111101100011010000001111100000001100011101001001101001111 "
0b
#1067
b11100000001000100011101100000001010010100001010011010111 "
1b
#1068
b1111111001111011111101100110101100000000010111010101111011011000 "
0b
#1137
b1111111101101110010101000000011100000001011100110110100011110010 "
1b
#1138
b1111111100110010011011010100011011111110101010011110010111000001 "
0b
#1207
b1111111001111101000111010010000100000000011000010100110010011011 "
1b
#1208
b100000010101000101011111111111110110100000000011101100010 "
0b
#1277
b1111111011001010111100111001001011111111000000111100100111111011 "
1b
#1278
b101110101011010101100000000000000100011001100100011010101 "
0b
#1347
b1001111011001010011011111110011100010100000001101010 "
1b
#1348
b1011011111110000000000001100011110000110100110101 "
0b
#1417
b100111100011100001100011111111111000011010100000111100011 "
1b
#1418
b1111111010001110100100100010111100000000100101101100001000010000 "
0b
#1487
b110000101011010101011111100000000010101100000110100110110 "
1b
#1488
b1111111011100100010011111111100111111110111001110111011000011010 "
0b
#1557
b10111111100101111100010100000001010111011100001010111000 "
1b
#1558
b10001011001111000110010111111110100010100010010000100010 "
0b
#1627
b1111111101111110010000000110001000000001011110010001011100010100 "
1b
#1628
b110001101011011010001000011111111110111011001010101000110 "
0b
#1697
b1111111010010100111100001110010100000000101001010000011110110110 "
1b
#1698
b11010000001010110110000000000001010101000100101011001100 "
0b
#1767
b1111111010001011101010100001001011111111011100010001010110001111 "
1b
#1768
b1111111100110011000011101110011100000001010101100100001001100110 "
0b
1c
#1769
0c
#1837
b1111111101011001011010000000000111111110100101011001110010000011 "
1b
#1838
b1111111001110001010101000000101011111111111100010000010010000011 "
0b
#1907
b1111110100000010111101011111110100001011011110110110101 "
1b
#1908
b1111111101000110010100010100011011111110100111101101111001011001 "
0b
#1977
b101011011010011101001111111111111001110111101010110100110 "
1b
#1978
b11001110111101110000101111111110101010101110010011110100 "
0b
#2047
b110000110111010101110100000000000010011110100001011100001 "
1b
#2048
b110001110111100001110111011111111111110011011010110100111 "
0b
#2117
b11111001101001100101110000000001001101110000101101011111 "
1b
#2118
b11100000001000100011101100000001010010100001010011010111 "
0b
#2187
b101001011011000100000001100011101101000111100000 "
1b
#2188
b1111111101101110010101000000011100000001011100110110100011110010 "
0b
#2257
b1111111100001101100110011011011000000001001111001010000000110111 "
1b
#2258
b1111111001111101000111010010000100000000011000010100110010011011 "
0b
#2315
0d
#2327
b1111111010000001000010110001000000000000011011101111110001111100 "
1b
#2328
b1111111011001010111100111001001011111111000000111100100111111011 "
0b
#2397
b1111111010000111010011000010110111111111011111010111011110001010 "
1b
#2398
b1001111011001010011011111110011100010100000001101010 "
0b
#2467
b1111111100010001100101011000101111111110110000001000010011110000 "
1b
#2468
b100111100011100001100011111111111000011010100000111100011 "
0b
#2537
b1111111111100110001101010001011111111110011100100011100101101011 "
1b
#2538
b110000101011010101011111100000000010101100000110100110110 "
0b
#2607
b10111100010011011011101011111110101000001010111000011110 "
1b
#2608
b10111111100101111100010100000001010111011100001010111000 "
0b
#2677
b101010101100010011001000111111111001100100111111000001000 "
1b
#2678
b1111111101111110010000000110001000000001011110010001011100010100 "
0b
#2747
b110001110100001000101010011111111111101100101011001010000 "
1b
#2748
b1111111010010100111100001110010100000000101001010000011110110110 "
0b
#2817
b101100010110011111100010000000000101101011100100100000110 "
1b
#2818
b1111111010001011101010100001001011111111011100010001010110001111 "
0b
#2887
b11100111011110101110111100000001010001001010010100100100 "
1b
#2888
b1111111101011001011010000000000111111110100101011001110010000011 "
0b
#2957
b111111111111011100001100000001100010011001011001110110 "
1b
#2958
b1111110100000010111101011111110100001011011110110110101 "
0b
#3027
b1111111110010010110111000000001100000001011111111001001111000111 "
1b
#3028
b101011011010011101001111111111111001110111101010110100110 "
0b
#3097
b1111111100000000010100101110100100000001001100100001110010100100 "
1b
#3098
b110000110111010101110100000000000010011110100001011100001 "
0b
#3167
b1111111010011101011111011001110100000000101101101100100111000000 "
1b
#3168
b11111001101001100101110000000001001101110000101101011111 "
0b
#3237
b1111111001110011000001000001111000000000001001101001100001010111 "
1b
#3238
b101001011011000100000001100011101101000111100000 "
0b
#3307
b1111111001111110110101110010011111111111100110001000001100000100 "
1b
#3308
b1111111100001101100110011011011000000001001111001010000000110111 "
0b
#3377
b1111111010110111010111110100111011111111000111100001010111000010 "
1b
#3378
b1111111010000001000010110001000000000000011011101111110001111100 "
0b
#3447
b1111111100001111001101000111111111111110110000100011010110100001 "
1b
#3448
b1111111010000111010011000010110111111111011111010111011110001010 "
0b
#3517
b1111111101111000000011101011001111111110100010010100010101011100 "
1b
#3518
b1111111100010001100101011000101111111110110000001000010011110000 "
0b
#3587
b1111111111100101010001101000110011111110011100100101111001000011 "
1b
#3588
b1111111111100110001101010001011111111110011100100011100101101011 "
0b
#3657
b1001100110111111001001011111110011110010001000000010100 "
1b
#3658
b10111100010011011011101011111110101000001010111000011110 "
0b
#3727
b10101000001001100000110011111110100101101110011001110011 "
1b
#3728
b101010101100010011001000111111111001100100111111000001000 "
0b
#3797
b11110011011110001010011111111110110001001101101111101100 "
1b
#3798
b110001110100001000101010011111111111101100101011001010000 "
0b
#3867
b100101101110001000001001111111110111111000100000111000111 "
1b
#3868
b101100010110011111100010000000000101101011100100100000110 "
0b
#3937
b101010111111001001010111111111111001101110110101110101011 "
1b
#3938
b11100111011110101110111100000001010001001010010100100100 "
0b
#4007
b101110011110101111000111011111111011100011101001101010011 "
1b
#4008
b111111111111011100001100000001100010011001011001110110 "
0b
#4077
b110000100010101011101100111111111101010000101001110000000 "
1b
#4078
b1111111110010010110111000000001100000001011111111001001111000111 "
0b
#4147
b110001100001100001001001111111111110110001100011100010111 "
1b
#4148
b1111111100000000010100101110100100000001001100100001110010100100 "
0b
#4217
b110001110001010111011010100000000000000011111100101101000 "
1b
#4218
b1111111010011101011111011001110100000000101101101100100111000000 "
0b
#4287
b110001100101001101101010100000000001000110101010001110100 "
1b
#4288
b1111111001110011000001000001111000000000001001101001100001010111 "
0b
#4357
b110001001101000000001110000000000001111001011001011111001 "
1b
#4358
b1111111001111110110101110010011111111111100110001000001100000100 "
0b
#4427
b110000110100100011100100000000000010011100010001001001010 "
1b
#4428
b1111111010110111010111110100111011111111000111100001010111000010 "
0b
#4497
b110000100100011010011000000000000010101111100100010111100 "
1b
#4498
b1111111100001111001101000111111111111110110000100011010110100001 "
0b
#4567
b110000100000110100101000100000000010110011100010000000110 "
1b
#4568
b1111111101111000000011101011001111111110100010010100010101011100 "
0b
#4637
b110000101010110011000001000000000010101000001010101100100 "
1b
#4638
b1111111111100101010001101000110011111110011100100101111001000011 "
0b
#4707
b110000111111110011100001100000000010001101011001001000101 "
1b
#4708
b1001100110111111001001011111110011110010001000000010100 "
0b
#4777
b110001011001011001100100100000000001100010111001011001011 "
1b
#4778
b10101000001001100000110011111110100101101110011001110011 "
0b
#4847
b110001101101011011100110000000000000101000011011000000001 "
1b
#4848
b11110011011110001010011111111110110001001101101111101100 "
0b
#4917
b110001101110010100100101011111111111011110000010111011011 "
1b
#4918
b100101101110001000001001111111110111111000100000111000111 "
0b
#4987
b110001001010010110111011111111111110000100011101000101111 "
1b
#4988
b101010111111001001010111111111111001101110110101110101011 "
0b
#5057
b101111101100110101011100111111111100011101010011010011101 "
1b
#5058
b101110011110101111000111011111111011100011101001101010011 "
0b
#5127
b101100111111100111000000011111111010101011110110100101010 "
1b
#5128
b110000100010101011101100111111111101010000101001110000000 "
0b
#5197
b101000101011101101101111111111111000110101010111100100010 "
1b
#5198
b110001100001100001001001111111111110110001100011100010111 "
0b
#5267
b100010011101101110111110111111110111000001011010000010110 "
1b
#5268
b110001110001010111011010100000000000000011111100101101000 "
0b
#5337
b11010001001011111111001011111110101011010001011001010110 "
1b
#5338
b110001100101001101101010100000000001000110101010001110100 "
0b
#5407
b1111101111001010101001011111110100001100000101101110110 "
1b
#5408
b110001001101000000001110000000000001111001011001011111001 "
0b
#5477
b11100000000100001110011111110011100101000001101010011 "
1b
#5478
b110000110100100011100100000000000010011100010001001001010 "
0b
#5547
b1111111110110000101011000001000111111110011110010110011000110001 "
1b
#5548
b110000100100011010011000000000000010101111100100010111100 "
0b
#5617
b1111111101000100001000000110111111111110101000000110000000010001 "
1b
#5618
b110000100000110100101000100000000010110011100010000000110 "
0b
#5687
b1111111011100001110001010001000011111110111010100110000001110110 "
1b
#5688
b110000101010110011000001000000000010101000001010101100100 "
0b
#5757
b1111111010010111010001001111010111111111010101011110110001101100 "
1b
#5758
b110000111111110011100001100000000010001101011001001000101 "
0b
#5827
b1111111001110010110100100110001011111111110110111001111110011100 "
1b
#5828
b110001011001011001100100100000000001100010111001011001011 "
0b
#5897
b1111111010000000011001111101011000000000011011010101000000011010 "
1b
#5898
b110001101101011011100110000000000000101000011011000000001 "
0b
#5967
b1111111011000110011100110011000100000000111101101000000000101100 "
1b
#5968
b110001101110010100100101011111111111011110000010111011011 "
0b
#6037
b1111111101000010001010000100011100000001010111101011111010110011 "
1b
#6038
b110001001010010110111011111111111110000100011101000101111 "
0b
#6107
b1111111111100100111100001001001100000001100011011101110110010111 "
1b
#6108
b101111101100110101011100111111111100011101010011010011101 "
0b
#6177
b10010011111011010001001000000001011100100100100101001110 "
1b
#6178
b101100111111100111000000011111111010101011110110100101010 "
0b
#6247
b100101010111101000101001100000001000001111100011101011000 "
1b
#6248
b101000101011101101101111111111111000110101010111100100010 "
0b
#6317
b110000011101001101101111100000000010111010000001001011010 "
1b
#6318
b100010011101101110111110111111110111000001011010000010110 "
0b
#6387
b101111111111111010010001111111111100101001111110111011111 "
1b
#6388
b11010001001011111111001011111110101011010001011001010110 "
0b
#6457
b100010110000100111001011111111110111000100110101101001101 "
1b
#6458
b1111101111001010101001011111110100001100000101101110110 "
0b
#6527
b1011001001000110000100011111110011110110111110110001001 "
1b
#6528
b11100000000100001110011111110011100101000001101010011 "
0b
#6597
b1111111101111010110010001101010111111110100010000100101011110110 "
1b
#6598
b1111111110110000101011000001000111111110011110010110011000110001 "
0b
#6667
b1111111011000001001111011011000111111111000100001001011100001000 "
1b
#6668
b1111111101000100001000000110111111111110101000000110000000010001 "
0b
#6737
b1111111001110001100110001001010111111111111100001001110010101001 "
1b
#6738
b1111111011100001110001010001000011111110111010100110000001110110 "
0b
#6807
b1111111010110011111001011110110000000000110111001011001010110111 "
1b
#6808
b1111111010010111010001001111010111111111010101011110110001101100 "
0b
#6877
b1111111101111011001111011000101000000001011110000000101000001100 "
1b
#6878
b1111111001110010110100100110001011111111110110111001111110011100 "
0b
#6947
b1111111011000111100001100000001011110011110111011101001 "
1b
#6948
b1111111010000000011001111101011000000000011011010101000000011010 "
0b
#7017
b101010001101000000001110100000000110101000101111100001000 "
1b
#7018
b1111111011000110011100110011000100000000111101101000000000101100 "
0b
#7087
b110001010110101000110010011111111110001110101101010100110 "
1b
#7088
b1111111101000010001010000100011100000001010111101011111010110011 "
0b
#7157
b100000010010110000111001111111110110100000001101000011100 "
1b
#7158
b1111111111100100111100001001001100000001100011011101110110010111 "
0b
#7227
b1111111111110000011110110101000111111110011100010111001111011110 "
1b
#7228
b10010011111011010001001000000001011100100100100101001110 "
0b
#7297
b1111111011100001010100001111110111111110111010101011100011000101 "
1b
#7298
b100101010111101000101001100000001000001111100011101011000 "
0b
#7367
b1111111001110001001110011111000000000000000001011010110111011111 "
1b
#7368
b110000011101001101101111100000000010111010000001001011010 "
0b
#7437
b1111111011101111000000011110010100000001001000101011010101110001 "
1b
#7438
b101111111111111010010001111111111100101001111110111011111 "
0b
#7507
b11011001110101101011100000001100011011101111010101100 "
1b
#7508
b100010110000100111001011111111110111000100110101101001101 "
0b
#7577
b100111010111100100101111100000000111101001010011110000010 "
1b
#7578
b1011001001000110000100011111110011110110111110110001001 "
0b
#7647
b110000110110001000100010111111111101100000100010010100100 "
1b
#7648
b1111111101111010110010001101010111111110100010000100101011110110 "
0b
#7717
b10111011000011110100001111111110100111111011110001000111 "
1b
#7718
b1111111011000001001111011011000111111111000100001001011100001000 "
0b
#7787
b1111111101011111111101001110001011111110100100101010000101011111 "
1b
#7788
b1111111001110001100110001001010111111111111100001001110010101001 "
0b
#7857
b1111111001111100010000000010110111111111101000100100000111110011 "
1b
#7858
b1111111010110011111001011110110000000000110111001011001010110111 "
0b
#7927
b1111111011001111101010111000011100000001000000011111100101100110 "
1b
#7928
b1111111101111011001111011000101000000001011110000000101000001100 "
0b
#7997
b100100110110010000110000000001100011010100011100110010 "
1b
#7998
b1111111011000111100001100000001011110011110111011101001 "
0b
#8067
b101011110011011101010110100000000101111101100000011110100 "
1b
#8068
b101010001101000000001110100000000110101000101111100001000 "
0b
#8137
b101011101111100010010101011111111010000000101100100101000 "
1b
#8138
b110001010110101000110010011111111110001110101101010100110 "
0b
